<?xml version="1.0" encoding="utf-8"?>
<!-- Generator: Adobe Illustrator 21.0.0, SVG Export Plug-In . SVG Version: 6.00 Build 0)  -->
<svg version="1.1" id="Capa_1" xmlns="http://www.w3.org/2000/svg" xmlns:xlink="http://www.w3.org/1999/xlink" x="0px" y="0px"
	 viewBox="0 0 100 100" style="enable-background:new 0 0 100 100;" xml:space="preserve">
<style type="text/css">
	.st0{opacity:0.7;fill:#F7F8FA;}
	.st1{fill:#ED1C24;}
	.st2{opacity:0.5;}
	.st3{fill:#FFFFFF;}
	.st4{fill:#0071BC;}
	.st5{opacity:0.8;fill:#CCCCCC;}
</style>
<g>
	<circle class="st0" cx="50" cy="50" r="45"/>
	<g>
		<circle class="st1" cx="50" cy="50" r="36.2"/>
		<g>
			<path class="st2" d="M55.4,59.3h-1c0-0.1,0.1-0.3,0.1-0.5V32.1c0-0.8-0.7-1.5-1.5-1.5H32.7c-0.8,0-1.5,0.7-1.5,1.5v26.8
				c0,0.2,0,0.3,0.1,0.5h-1c-0.5,0-0.9,0.4-0.9,0.9v1.1h27.1v-1C56.4,59.8,56,59.3,55.4,59.3z M37.1,35.1c0-0.4,0.3-0.7,0.7-0.7h2.5
				c0.4,0,0.7,0.3,0.7,0.7v2.5c0,0.4-0.3,0.7-0.7,0.7h-2.5c-0.4,0-0.7-0.3-0.7-0.7V35.1z M37.1,40.8c0-0.4,0.3-0.7,0.7-0.7h2.5
				c0.4,0,0.7,0.3,0.7,0.7v2.5c0,0.4-0.3,0.7-0.7,0.7h-2.5c-0.4,0-0.7-0.3-0.7-0.7V40.8z M40.3,49.8h-2.5c-0.4,0-0.7-0.3-0.7-0.7
				v-2.5c0-0.4,0.3-0.7,0.7-0.7h2.5c0.4,0,0.7,0.3,0.7,0.7v2.5C41,49.5,40.7,49.8,40.3,49.8z M44.9,59.5h-4v-5
				c0-0.5,0.4-0.8,0.8-0.8H44c0.5,0,0.8,0.4,0.8,0.8V59.5z M48.7,49.2c0,0.4-0.3,0.7-0.7,0.7h-2.5c-0.4,0-0.7-0.3-0.7-0.7v-2.5
				c0-0.4,0.3-0.7,0.7-0.7h2.5c0.4,0,0.7,0.3,0.7,0.7V49.2z M48.7,43.3c0,0.4-0.3,0.7-0.7,0.7h-2.5c-0.4,0-0.7-0.3-0.7-0.7v-2.5
				c0-0.4,0.3-0.7,0.7-0.7h2.5c0.4,0,0.7,0.3,0.7,0.7V43.3z M48.7,37.6c0,0.4-0.3,0.7-0.7,0.7h-2.5c-0.4,0-0.7-0.3-0.7-0.7v-2.5
				c0-0.4,0.3-0.7,0.7-0.7h2.5c0.4,0,0.7,0.3,0.7,0.7V37.6z"/>
			<g>
				<path class="st3" d="M64.7,51.4H60v9.4c0,0.8-0.6,1.4-1.4,1.4h-4.4c-0.8,0-1.4-0.6-1.4-1.4v-9.4h-4.7c-1.1,0-1.6-1.3-0.9-2.1
					l8.3-8.5c0.5-0.5,1.3-0.5,1.8,0l8.3,8.5C66.3,50.1,65.8,51.4,64.7,51.4z"/>
				<path class="st3" d="M69.3,60.4h-7.5v0.5c0,1.7-1.4,3-3,3H54c-1.7,0-3-1.4-3-3v-0.5h-7.5c-0.8,0-1.4,0.6-1.4,1.4v6.2
					c0,0.8,0.6,1.4,1.4,1.4h25.8c0.8,0,1.4-0.6,1.4-1.4v-6.2C70.6,61.1,70,60.4,69.3,60.4z M62.7,67.9c-0.6,0-1.1-0.5-1.1-1.1
					c0-0.6,0.5-1.1,1.1-1.1s1.1,0.5,1.1,1.1C63.8,67.4,63.3,67.9,62.7,67.9z M66.3,67.9c-0.6,0-1.1-0.5-1.1-1.1
					c0-0.6,0.5-1.1,1.1-1.1c0.6,0,1.1,0.5,1.1,1.1C67.4,67.4,66.9,67.9,66.3,67.9z"/>
			</g>
		</g>
	</g>
</g>
<g>
	<circle class="st0" cx="198" cy="43" r="45"/>
	<g>
		<circle class="st4" cx="198" cy="43" r="36.2"/>
		<g>
			<path class="st2" d="M194.2,32c-3.1,0-5.6,2.5-5.6,5.6c0,3.1,4.9,9,5.6,9s5.6-5.9,5.6-9C199.9,34.5,197.3,32,194.2,32z
				 M194.2,39.3c-1,0-1.9-0.8-1.9-1.9s0.8-1.9,1.9-1.9s1.9,0.8,1.9,1.9S195.2,39.3,194.2,39.3z"/>
			<path class="st3" d="M217.5,57.7l-8.6-8.7l-1.7-0.2c1.9-2.7,3.1-5.9,3.1-9.5c0-8.8-7.2-16-16-16c-8.8,0-16,7.2-16,16
				s7.2,16,16,16c3.7,0,7.1-1.3,9.8-3.4l0.1,1.8l8.5,8.7c0.5,0.5,1.2,0.5,1.7,0l3.1-3C217.9,58.9,217.9,58.2,217.5,57.7z
				 M194.2,50.7c-6.3,0-11.4-5.1-11.4-11.4c0-6.3,5.1-11.4,11.4-11.4s11.4,5.1,11.4,11.4C205.6,45.6,200.5,50.7,194.2,50.7z"/>
		</g>
	</g>
</g>
<path class="st5" d="M-52,116h-100c-3.9,0-7-3.1-7-7v-7c0-3.9,3.1-7,7-7h100c3.9,0,7,3.1,7,7v7C-45,112.9-48.1,116-52,116z"/>
<text transform="matrix(1 0 0 1 -145.5234 109.022)" style="font-family:'MyriadPro-Regular'; font-size:12px;">Buscar Propiedad</text>
<path class="st5" d="M1,232H-99c-3.9,0-7-3.1-7-7v-7c0-3.9,3.1-7,7-7H1c3.9,0,7,3.1,7,7v7C8,228.9,4.9,232,1,232z"/>
<text transform="matrix(1 0 0 1 -96.2314 225.022)" style="font-family:'MyriadPro-Regular'; font-size:12px;">Publicar Propiedad</text>
</svg>
