<svg xmlns="http://www.w3.org/2000/svg" width="56" height="78" viewBox="0 0 56 78">
  <g id="Publicar_Propiedades" data-name="Publicar Propiedades" transform="translate(-655 -394.174)">
    <path id="Rectángulo_5" data-name="Rectángulo 5" d="M5.206,0H56a0,0,0,0,1,0,0V78a0,0,0,0,1,0,0H5.206A5.206,5.206,0,0,1,0,72.794V5.206A5.206,5.206,0,0,1,5.206,0Z" transform="translate(655 394.174)" fill="#ff8b17" style="mix-blend-mode: multiply;isolation: isolate"/>
    <path id="Trazado_69" data-name="Trazado 69" d="M.9.11H2.21V-2.377H3.682A2.234,2.234,0,0,0,5.976-4.753,2.209,2.209,0,0,0,3.682-7.1H.9ZM2.21-3.514V-5.971H3.458A1.117,1.117,0,0,1,4.646-4.753,1.133,1.133,0,0,1,3.438-3.514ZM7.032-2.479A2.669,2.669,0,0,0,9.946.232a2.666,2.666,0,0,0,2.9-2.711V-7.1H11.54v4.609a1.446,1.446,0,0,1-1.6,1.523A1.436,1.436,0,0,1,8.342-2.479V-7.1H7.032ZM14.575.11h2.609c1.33,0,2.487-.65,2.487-2.091a1.687,1.687,0,0,0-1.168-1.7V-3.7a1.706,1.706,0,0,0,.873-1.543c0-1.188-.924-1.858-2.223-1.858H14.575Zm1.31-4.264V-5.971h1.249a.832.832,0,0,1,.914.893.86.86,0,0,1-.893.924Zm0,3.137V-3.1h1.4a.978.978,0,0,1,1.046,1.036.975.975,0,0,1-1.046,1.046ZM21.093.11h4.426V-1.017H22.4V-7.1h-1.31Zm5.472,0h1.31V-7.1h-1.31ZM29.2-3.525A3.624,3.624,0,0,0,32.93.232,3.879,3.879,0,0,0,35.763-.936l-.69-.944a3.105,3.105,0,0,1-2.091.914,2.436,2.436,0,0,1-2.426-2.579,2.349,2.349,0,0,1,2.416-2.477,3.177,3.177,0,0,1,1.97.761l.629-.975a3.729,3.729,0,0,0-2.66-.985A3.623,3.623,0,0,0,29.2-3.525ZM41.164.11h1.35L39.976-7.1H38.606L36.068.11h1.35l.609-1.848h2.528ZM39.306-5.849s.152.711.284,1.117L40.23-2.8H38.342l.64-1.929c.142-.406.3-1.117.3-1.117ZM43.438.11h1.31V-2.58h1.259L47.438.11H48.9L47.418-2.58a1.762,1.762,0,0,0-.244-.355v-.02a2.075,2.075,0,0,0,1.218-1.97A2.036,2.036,0,0,0,47.215-6.9a3.35,3.35,0,0,0-1.452-.2H43.438Zm1.31-3.827V-5.971h.995c1.025,0,1.32.426,1.32,1.117a1.046,1.046,0,0,1-1.137,1.137Z" transform="translate(658.1 458.22)" fill="#fff"/>
    <path id="Trazado_70" data-name="Trazado 70" d="M.45,1.568h.925V-.189h1.04A1.578,1.578,0,0,0,4.036-1.867,1.561,1.561,0,0,0,2.415-3.524H.45Zm.925-2.56V-2.728h.882a.789.789,0,0,1,.839.861.8.8,0,0,1-.853.875Zm3.478,2.56h.925v-1.9h.889l1.011,1.9H8.712L7.665-.333a1.244,1.244,0,0,0-.172-.251V-.6a1.466,1.466,0,0,0,.861-1.391,1.438,1.438,0,0,0-.832-1.391A2.367,2.367,0,0,0,6.5-3.524H4.853Zm.925-2.7V-2.728h.7c.724,0,.932.3.932.789a.739.739,0,0,1-.8.8Zm3.414.122a2.606,2.606,0,0,0,2.632,2.668,2.606,2.606,0,0,0,2.632-2.668,2.572,2.572,0,0,0-2.632-2.6A2.572,2.572,0,0,0,9.192-1.014Zm.954,0a1.688,1.688,0,0,1,1.678-1.75A1.688,1.688,0,0,1,13.5-1.014,1.725,1.725,0,0,1,11.824.808,1.725,1.725,0,0,1,10.146-1.014ZM15.4,1.568h.925V-.189h1.04a1.578,1.578,0,0,0,1.621-1.678,1.561,1.561,0,0,0-1.621-1.657H15.4Zm.925-2.56V-2.728H17.2a.789.789,0,0,1,.839.861.8.8,0,0,1-.853.875ZM19.8,1.568h.925V-3.524H19.8Zm2.216,0h3.163v-.8H22.94V-.6h1.714v-.8H22.94V-2.728h2.123v-.8H22.015Zm4.124,0h1.736a2.388,2.388,0,0,0,2.6-2.553,2.378,2.378,0,0,0-2.6-2.539H26.139Zm.925-.8v-3.5h.76A1.578,1.578,0,0,1,29.517-.985,1.576,1.576,0,0,1,27.824.772Zm7.308.8h.954L33.533-3.524h-.968L30.772,1.568h.954l.43-1.305h1.786ZM33.06-2.642s.108.5.2.789L33.712-.49H32.378l.452-1.363c.1-.287.215-.789.215-.789Zm2.919,4.21h1.736a2.388,2.388,0,0,0,2.6-2.553,2.378,2.378,0,0,0-2.6-2.539H35.978Zm.925-.8v-3.5h.76A1.578,1.578,0,0,1,39.356-.985,1.576,1.576,0,0,1,37.664.772Zm4.375.8h3.163v-.8H42.2V-.6h1.714v-.8H42.2V-2.728h2.123v-.8H41.278Zm3.736-.61a2.465,2.465,0,0,0,1.757.7A1.521,1.521,0,0,0,48.45.162c0-1.628-2.4-1.406-2.4-2.309,0-.359.337-.61.767-.61a1.859,1.859,0,0,1,1.126.445l.4-.753a2.165,2.165,0,0,0-1.52-.545,1.565,1.565,0,0,0-1.707,1.477c0,1.563,2.4,1.406,2.4,2.316,0,.416-.351.617-.739.617A2.04,2.04,0,0,1,45.517.263Z" transform="translate(658.55 465)" fill="#fff"/>
    <path id="_003-working-at-home" data-name="003-working-at-home" d="M52.265,8.437a4.219,4.219,0,1,0-4.219-4.219A4.223,4.223,0,0,0,52.265,8.437Zm0-5.625a1.406,1.406,0,1,1-1.406,1.406A1.408,1.408,0,0,1,52.265,2.812Zm15.75,31.168a1.406,1.406,0,1,1-2.532,1.225l-4.209-8.7H51.843a4.223,4.223,0,0,1-4.219-4.219v-8.3a4.219,4.219,0,1,1,8.437,0v5.484a1.406,1.406,0,1,1-2.812,0V13.992a1.406,1.406,0,0,0-2.812,0v8.3A1.408,1.408,0,0,0,51.843,23.7H62.156a1.406,1.406,0,0,1,1.266.794Zm-6.13-.026a1.406,1.406,0,1,1-2.506,1.276l-1.578-3.1H51.843a9.784,9.784,0,0,1-4.877-1.3l-2.237,4.394a1.406,1.406,0,0,1-2.506-1.276l2.489-4.888A9.809,9.809,0,0,1,42,22.289V11.18a1.406,1.406,0,1,1,2.812,0V22.289a7.039,7.039,0,0,0,7.031,7.031h6.82a1.406,1.406,0,0,1,1.253.768ZM72.02,11.484l-2.812,8.437a1.406,1.406,0,0,1-1.334.962h-7.8a1.406,1.406,0,1,1,0-2.812H66.86l2.492-7.476a1.406,1.406,0,0,1,2.668.889Z" transform="translate(626.001 402)" fill="#fff"/>
    <rect id="Rectángulo_7" data-name="Rectángulo 7" width="48" height="1" transform="translate(659 446)" fill="#fff"/>
  </g>
</svg>
